name = "Bronzegut Invasion"
war_goal = {
	type = superiority_monster
	casus_belli = cb_monster_vs_civ
}

#
1441.1.1 = {
	add_attacker = J41
	add_defender = J40
}
#
1444.7.1 = {
	rem_attacker = J41
	rem_defender = J40
}