# No previous file for Baiali
owner = G61
controller = G61
add_core = G61
culture = kimabhen
religion = kheionism
capital = ""

hre = no

base_tax = 1
base_production = 2
base_manpower = 1

trade_goods = fish

1443.1.4 = {	
	owner = G47
	controller = G47
}