# No previous file for Volhynia
owner = A93
controller = A93
add_core = A93
culture = esmari
religion = regent_court

hre = yes

base_tax = 3
base_production = 3
base_manpower = 3

trade_goods = livestock

capital = ""

is_city = yes





