# No previous file for Thatta
owner = F05
controller = F05
add_core = F05
add_core = F01
culture = kheteratan
religion = khetist

hre = no

base_tax = 1
base_production = 1
base_manpower = 1

trade_goods = livestock

capital = ""

is_city = yes









