# No previous file for Lamuri
owner = F33
controller = F33
add_core = F33
culture = zanite
religion = bulwari_sun_cult

hre = no

base_tax = 2
base_production = 2
base_manpower = 2

trade_goods = wool

capital = ""

is_city = yes










