country_decisions = {

	reclaim_escandar = {
		major = yes
		
		potential = {
			tag = A46
			NOT = { owns = 316 }
			has_country_flag = reclaim_escandar
			NOT = { has_country_flag = escandar_negotiations_started }
		}
		
		allow = {
			treasury = 1000
			NOT = {
				316 = {
					owner = {
						ROOT = {
							truce_with = PREV
						}
					}
				}
			}
		}
		
		effect = {
			set_country_flag = escandar_negotiations_started
			country_event = { id = arbaran.1 }
		}
	}
}

#Maybe add decisions to refurbish and improve Escandar and Aelcandar later tied to their missions